…
``` r
#Sepal.Length_norm is calculated using the mean of the Sepal.Length for all data set.

iris %>%
  select(Sepal.Length, Species) %>%
  group_by(Species) %>%
  mutate(Sepal.Length_norm = Sepal.Length / mean(Sepal.Length, na.rm = TRUE))
```

    ## # A tibble: 150 × 3
    ## # Groups:   Species [3]
    ##    Sepal.Length Species Sepal.Length_norm
    ##           <dbl> <fct>               <dbl>
    ##  1          5.1 setosa              1.02 
    ##  2          4.9 setosa              0.979
    ##  3          4.7 setosa              0.939
    ##  4          4.6 setosa              0.919
    ##  5          5   setosa              0.999
    ##  6          5.4 setosa              1.08 
    ##  7          4.6 setosa              0.919
    ##  8          5   setosa              0.999
    ##  9          4.4 setosa              0.879
    ## 10          4.9 setosa              0.979
    ## # ℹ 140 more rows
…
